Sample;Study;CellType;Treatment;SRR;FastQ_FTP_Prefix
Kelly.DMSO.day2.rep1;Chen;Kelly;DMSO_Day2;SRR4017735;ftp.sra.ebi.ac.uk/vol1/fastq/SRR401/005/SRR4017735/SRR4017735
Kelly.DMSO.day2.rep2;Chen;Kelly;DMSO_Day2;SRR4017736;ftp.sra.ebi.ac.uk/vol1/fastq/SRR401/006/SRR4017736/SRR4017736
Kelly.DMSO.day5.rep1;Chen;Kelly;DMSO_Day5;SRR4017737;ftp.sra.ebi.ac.uk/vol1/fastq/SRR401/007/SRR4017737/SRR4017737
Kelly.DMSO.day5.rep2;Chen;Kelly;DMSO_Day5;SRR4017738;ftp.sra.ebi.ac.uk/vol1/fastq/SRR401/008/SRR4017738/SRR4017738
Kelly.GSK126.day2.rep1;Chen;Kelly;GSK126_Day2;SRR4017739;ftp.sra.ebi.ac.uk/vol1/fastq/SRR401/009/SRR4017739/SRR4017739
Kelly.GSK126.day2.rep2;Chen;Kelly;GSK126_Day2;SRR4017740;ftp.sra.ebi.ac.uk/vol1/fastq/SRR401/000/SRR4017740/SRR4017740
Kelly.GSK126.day5.rep1;Chen;Kelly;GSK126_Day5;SRR4017741;ftp.sra.ebi.ac.uk/vol1/fastq/SRR401/001/SRR4017741/SRR4017741
Kelly.GSK126.day5.rep2;Chen;Kelly;GSK126_Day5;SRR4017742;ftp.sra.ebi.ac.uk/vol1/fastq/SRR401/002/SRR4017742/SRR4017742
LAN1.DMSO.day2.rep1;Chen;LAN-1;DMSO_Day2;SRR4017743;ftp.sra.ebi.ac.uk/vol1/fastq/SRR401/003/SRR4017743/SRR4017743
LAN1.DMSO.day2.rep2;Chen;LAN-1;DMSO_Day2;SRR4017744;ftp.sra.ebi.ac.uk/vol1/fastq/SRR401/004/SRR4017744/SRR4017744
LAN1.DMSO.day5.rep1;Chen;LAN-1;DMSO_Day5;SRR4017745;ftp.sra.ebi.ac.uk/vol1/fastq/SRR401/005/SRR4017745/SRR4017745
LAN1.DMSO.day5.rep2;Chen;LAN-1;DMSO_Day5;SRR4017746;ftp.sra.ebi.ac.uk/vol1/fastq/SRR401/006/SRR4017746/SRR4017746
LAN1.GSK126.day2.rep1;Chen;LAN-1;GSK126_Day2;SRR4017747;ftp.sra.ebi.ac.uk/vol1/fastq/SRR401/007/SRR4017747/SRR4017747
LAN1.GSK126.day2.rep2;Chen;LAN-1;GSK126_Day2;SRR4017748;ftp.sra.ebi.ac.uk/vol1/fastq/SRR401/008/SRR4017748/SRR4017748
LAN1.GSK126.day5.rep1;Chen;LAN-1;GSK126_Day5;SRR4017749;ftp.sra.ebi.ac.uk/vol1/fastq/SRR401/009/SRR4017749/SRR4017749
LAN1.GSK126.day5.rep2;Chen;LAN-1;GSK126_Day5;SRR4017750;ftp.sra.ebi.ac.uk/vol1/fastq/SRR401/000/SRR4017750/SRR4017750
SHEP21_0HR_RNA-seq_rep2;Zeid;SHEP21;Tet_0h;SRR3356427;ftp.sra.ebi.ac.uk/vol1/fastq/SRR335/007/SRR3356427/SRR3356427
SHEP21_0HR_RNA-seq_rep3;Zeid;SHEP21;Tet_0h;SRR3356428;ftp.sra.ebi.ac.uk/vol1/fastq/SRR335/008/SRR3356428/SRR3356428
SHEP21_16HR_RNA-seq_rep1;Zeid;SHEP21;Tet_16h;SRR3356429;ftp.sra.ebi.ac.uk/vol1/fastq/SRR335/009/SRR3356429/SRR3356429
SHEP21_16HR_RNA-seq_rep2;Zeid;SHEP21;Tet_16h;SRR3356430;ftp.sra.ebi.ac.uk/vol1/fastq/SRR335/000/SRR3356430/SRR3356430
SHEP21_16HR_RNA-seq_rep3;Zeid;SHEP21;Tet_16h;SRR3356431;ftp.sra.ebi.ac.uk/vol1/fastq/SRR335/001/SRR3356431/SRR3356431
SHEP21_24HR_RNA-seq_rep1;Zeid;SHEP21;Tet_24h;SRR3356432;ftp.sra.ebi.ac.uk/vol1/fastq/SRR335/002/SRR3356432/SRR3356432
SHEP21_24HR_RNA-seq_rep2;Zeid;SHEP21;Tet_24h;SRR3356433;ftp.sra.ebi.ac.uk/vol1/fastq/SRR335/003/SRR3356433/SRR3356433
SHEP21_24HR_RNA-seq_rep3;Zeid;SHEP21;Tet_24h;SRR3356434;ftp.sra.ebi.ac.uk/vol1/fastq/SRR335/004/SRR3356434/SRR3356434
SHEP21_2HR_RNA-seq_rep1;Zeid;SHEP21;Tet_2h;SRR3356435;ftp.sra.ebi.ac.uk/vol1/fastq/SRR335/005/SRR3356435/SRR3356435
SHEP21_2HR_RNA-seq_rep2;Zeid;SHEP21;Tet_2h;SRR3356436;ftp.sra.ebi.ac.uk/vol1/fastq/SRR335/006/SRR3356436/SRR3356436
SHEP21_2HR_RNA-seq_rep3;Zeid;SHEP21;Tet_2h;SRR3356437;ftp.sra.ebi.ac.uk/vol1/fastq/SRR335/007/SRR3356437/SRR3356437
SHEP21_4HR_RNA-seq_rep1;Zeid;SHEP21;Tet_4h;SRR3356438;ftp.sra.ebi.ac.uk/vol1/fastq/SRR335/008/SRR3356438/SRR3356438
SHEP21_4HR_RNA-seq_rep2;Zeid;SHEP21;Tet_4h;SRR3356439;ftp.sra.ebi.ac.uk/vol1/fastq/SRR335/009/SRR3356439/SRR3356439
SHEP21_4HR_RNA-seq_rep3;Zeid;SHEP21;Tet_4h;SRR3356440;ftp.sra.ebi.ac.uk/vol1/fastq/SRR335/000/SRR3356440/SRR3356440
SHEP21_6HR_RNA-seq_rep1;Zeid;SHEP21;Tet_6h;SRR3356441;ftp.sra.ebi.ac.uk/vol1/fastq/SRR335/001/SRR3356441/SRR3356441
SHEP21_6HR_RNA-seq_rep2;Zeid;SHEP21;Tet_6h;SRR3356442;ftp.sra.ebi.ac.uk/vol1/fastq/SRR335/002/SRR3356442/SRR3356442
SHEP21_6HR_RNA-seq_rep3;Zeid;SHEP21;Tet_6h;SRR3356443;ftp.sra.ebi.ac.uk/vol1/fastq/SRR335/003/SRR3356443/SRR3356443
SHEP21_8HR_RNA-seq_rep1;Zeid;SHEP21;Tet_8h;SRR3356444;ftp.sra.ebi.ac.uk/vol1/fastq/SRR335/004/SRR3356444/SRR3356444
SHEP21_8HR_RNA-seq_rep2;Zeid;SHEP21;Tet_8h;SRR3356445;ftp.sra.ebi.ac.uk/vol1/fastq/SRR335/005/SRR3356445/SRR3356445
SHEP21_8HR_RNA-seq_rep3;Zeid;SHEP21;Tet_8h;SRR3356446;ftp.sra.ebi.ac.uk/vol1/fastq/SRR335/006/SRR3356446/SRR3356446
BE2C_DMSO_B1;Zeid;BE2C;DMSO;SRR5441935;ftp.sra.ebi.ac.uk/vol1/fastq/SRR544/005/SRR5441935/SRR5441935
BE2C_DMSO_B2;Zeid;BE2C;DMSO;SRR5441936;ftp.sra.ebi.ac.uk/vol1/fastq/SRR544/006/SRR5441936/SRR5441936
BE2C_DMSO_B3;Zeid;BE2C;DMSO;SRR5441937;ftp.sra.ebi.ac.uk/vol1/fastq/SRR544/007/SRR5441937/SRR5441937
BE2C_JQ1_24HR_1;Zeid;BE2C;JQ1_24h;SRR5441938;ftp.sra.ebi.ac.uk/vol1/fastq/SRR544/008/SRR5441938/SRR5441938
BE2C_JQ1_24HR_2;Zeid;BE2C;JQ1_24h;SRR5441939;ftp.sra.ebi.ac.uk/vol1/fastq/SRR544/009/SRR5441939/SRR5441939
BE2C_JQ1_24HR_3;Zeid;BE2C;JQ1_24h;SRR5441940;ftp.sra.ebi.ac.uk/vol1/fastq/SRR544/000/SRR5441940/SRR5441940
BE2C_JQ1_4HR_2;Zeid;BE2C;JQ1_4h;SRR5441941;ftp.sra.ebi.ac.uk/vol1/fastq/SRR544/001/SRR5441941/SRR5441941
BE2C_JQ1_4HR_3;Zeid;BE2C;JQ1_4h;SRR5441942;ftp.sra.ebi.ac.uk/vol1/fastq/SRR544/002/SRR5441942/SRR5441942
BE2C_JQ1_8HR_1;Zeid;BE2C;JQ1_8h;SRR5441943;ftp.sra.ebi.ac.uk/vol1/fastq/SRR544/003/SRR5441943/SRR5441943
BE2C_JQ1_8HR_2;Zeid;BE2C;JQ1_8h;SRR5441944;ftp.sra.ebi.ac.uk/vol1/fastq/SRR544/004/SRR5441944/SRR5441944
BE2C_JQ1_8HR_3;Zeid;BE2C;JQ1_8h;SRR5441945;ftp.sra.ebi.ac.uk/vol1/fastq/SRR544/005/SRR5441945/SRR5441945
BE2C_shT_12HR_rep1;Zeid;BE2C;shT_12h;SRR5441946;ftp.sra.ebi.ac.uk/vol1/fastq/SRR544/006/SRR5441946/SRR5441946
BE2C_shT_12HR_rep2;Zeid;BE2C;shT_12h;SRR5441947;ftp.sra.ebi.ac.uk/vol1/fastq/SRR544/007/SRR5441947/SRR5441947
BE2C_shT_12HR_rep3;Zeid;BE2C;shT_12h;SRR5441948;ftp.sra.ebi.ac.uk/vol1/fastq/SRR544/008/SRR5441948/SRR5441948
BE2C_shT_24HR_rep1;Zeid;BE2C;shT_24h;SRR5441949;ftp.sra.ebi.ac.uk/vol1/fastq/SRR544/009/SRR5441949/SRR5441949
BE2C_shT_24HR_rep2;Zeid;BE2C;shT_24h;SRR5441950;ftp.sra.ebi.ac.uk/vol1/fastq/SRR544/000/SRR5441950/SRR5441950
BE2C_shT_24HR_rep3;Zeid;BE2C;shT_24h;SRR5441951;ftp.sra.ebi.ac.uk/vol1/fastq/SRR544/001/SRR5441951/SRR5441951
BE2C_shT_3HR_rep1;Zeid;BE2C;shT_3h;SRR5441952;ftp.sra.ebi.ac.uk/vol1/fastq/SRR544/002/SRR5441952/SRR5441952
BE2C_shT_3HR_rep2;Zeid;BE2C;shT_3h;SRR5441953;ftp.sra.ebi.ac.uk/vol1/fastq/SRR544/003/SRR5441953/SRR5441953
BE2C_shT_3HR_rep3;Zeid;BE2C;shT_3h;SRR5441954;ftp.sra.ebi.ac.uk/vol1/fastq/SRR544/004/SRR5441954/SRR5441954
BE2C_shT_48HR_rep1;Zeid;BE2C;shT_48h;SRR5441955;ftp.sra.ebi.ac.uk/vol1/fastq/SRR544/005/SRR5441955/SRR5441955
BE2C_shT_48HR_rep2;Zeid;BE2C;shT_48h;SRR5441956;ftp.sra.ebi.ac.uk/vol1/fastq/SRR544/006/SRR5441956/SRR5441956
BE2C_shT_48HR_rep3;Zeid;BE2C;shT_48h;SRR5441957;ftp.sra.ebi.ac.uk/vol1/fastq/SRR544/007/SRR5441957/SRR5441957
BE2C_shT_6HR_rep1;Zeid;BE2C;shT_6h;SRR5441958;ftp.sra.ebi.ac.uk/vol1/fastq/SRR544/008/SRR5441958/SRR5441958
BE2C_shT_6HR_rep2;Zeid;BE2C;shT_6h;SRR5441959;ftp.sra.ebi.ac.uk/vol1/fastq/SRR544/009/SRR5441959/SRR5441959
BE2C_shT_6HR_rep3;Zeid;BE2C;shT_6h;SRR5441960;ftp.sra.ebi.ac.uk/vol1/fastq/SRR544/000/SRR5441960/SRR5441960
BE2C_shT_nodox_rep1;Zeid;BE2C;shT_nodox;SRR5441961;ftp.sra.ebi.ac.uk/vol1/fastq/SRR544/001/SRR5441961/SRR5441961
BE2C_shT_nodox_rep2;Zeid;BE2C;shT_nodox;SRR5441962;ftp.sra.ebi.ac.uk/vol1/fastq/SRR544/002/SRR5441962/SRR5441962
BE2C_shT_nodox_rep3;Zeid;BE2C;shT_nodox;SRR5441963;ftp.sra.ebi.ac.uk/vol1/fastq/SRR544/003/SRR5441963/SRR5441963
Eilers_U2OS_+Dox_pLKO-empty_replicate1_RNAseq;Eilers;U2OS_pLKO;empty_+Dox;SRR1204521;ftp.sra.ebi.ac.uk/vol1/fastq/SRR120/001/SRR1204521/SRR1204521
Eilers_U2OS_+Dox_pLKO-empty_replicate2_RNAseq;Eilers;U2OS_pLKO;empty_+Dox;SRR1204522;ftp.sra.ebi.ac.uk/vol1/fastq/SRR120/002/SRR1204522/SRR1204522
Eilers_U2OS_-Dox_pLKO-empty_replicate1_RNAseq;Eilers;U2OS_pLKO;empty_-Dox;SRR1204523;ftp.sra.ebi.ac.uk/vol1/fastq/SRR120/003/SRR1204523/SRR1204523
Eilers_U2OS_-Dox_pLKO-empty_replicate2_RNAseq;Eilers;U2OS_pLKO;empty_-Dox;SRR1204524;ftp.sra.ebi.ac.uk/vol1/fastq/SRR120/004/SRR1204524/SRR1204524
Eilers_U2OS_+Dox_pLKO-shMiz1_replicate1_RNAseq;Eilers;U2OS_pLKO;shMiz1_+Dox;SRR1204525;ftp.sra.ebi.ac.uk/vol1/fastq/SRR120/005/SRR1204525/SRR1204525
Eilers_U2OS_+Dox_pLKO-shMiz1_replicate2_RNAseq;Eilers;U2OS_pLKO;shMiz1_+Dox;SRR1204526;ftp.sra.ebi.ac.uk/vol1/fastq/SRR120/006/SRR1204526/SRR1204526
Eilers_U2OS_+Dox_RNAseq;Eilers;U2OS;+Dox;SRR987278;ftp.sra.ebi.ac.uk/vol1/fastq/SRR987/SRR987278/SRR987278
Eilers_U2OS_+Dox_RNAseq;Eilers;U2OS;+Dox;SRR987279;ftp.sra.ebi.ac.uk/vol1/fastq/SRR987/SRR987279/SRR987279
Eilers_U2OS_+Dox_RNAseq;Eilers;U2OS;+Dox;SRR987280;ftp.sra.ebi.ac.uk/vol1/fastq/SRR987/SRR987280/SRR987280
Eilers_U2OS_-Dox_RNAseq;Eilers;U2OS;-Dox;SRR987281;ftp.sra.ebi.ac.uk/vol1/fastq/SRR987/SRR987281/SRR987281
Eilers_U2OS_-Dox_RNAseq;Eilers;U2OS;-Dox;SRR987282;ftp.sra.ebi.ac.uk/vol1/fastq/SRR987/SRR987282/SRR987282
Eilers_U2OS_-Dox_RNAseq;Eilers;U2OS;-Dox;SRR987283;ftp.sra.ebi.ac.uk/vol1/fastq/SRR987/SRR987283/SRR987283
Rada_NCC_RNAseq;Rada;NCC;NONE;SRR191362;ftp.sra.ebi.ac.uk/vol1/fastq/SRR191/SRR191362/SRR191362
Rada_ESC_RNAseq;Rada;ESC;NONE;SRR067368;ftp.sra.ebi.ac.uk/vol1/fastq/SRR067/SRR067368/SRR067368
Rada_NEC_RNAseq;Rada;NEC;NONE;SRR067369;ftp.sra.ebi.ac.uk/vol1/fastq/SRR067/SRR067369/SRR067369
